2020-06-12T14:12:13.3946306+05:30  [INF] Application started. Press Ctrl+C to shut down. (dcaefe54)
2020-06-12T14:12:13.4033175+05:30  [INF] Hosting environment: "Development" (c3307c92)
2020-06-12T14:12:13.4034664+05:30  [INF] Content root path: "D:\Core_Repo\ms_practice\ASp.netcore_EFCore\ASp.netcore_EFCore" (b5d60022)
2020-06-12T14:12:13.4710028+05:30 8000001e-0000-fe00-b63f-84710c7967bb [INF] Log message in the Index() method (d2c930e3)
2020-06-12T14:16:05.0610214+05:30  [INF] Application started. Press Ctrl+C to shut down. (dcaefe54)
2020-06-12T14:16:05.0706749+05:30  [INF] Hosting environment: "Development" (c3307c92)
2020-06-12T14:16:05.0709277+05:30  [INF] Content root path: "D:\Core_Repo\ms_practice\ASp.netcore_EFCore\ASp.netcore_EFCore" (b5d60022)
2020-06-12T14:20:16.1888872+05:30  [INF] Application started. Press Ctrl+C to shut down. (dcaefe54)
2020-06-12T14:20:16.1938175+05:30  [INF] Hosting environment: "Development" (c3307c92)
2020-06-12T14:20:16.1939032+05:30  [INF] Content root path: "D:\Core_Repo\ms_practice\ASp.netcore_EFCore\ASp.netcore_EFCore" (b5d60022)
